<svg width="35" height="35" viewBox="0 0 35 35" fill="none" xmlns="http://www.w3.org/2000/svg">
<path fill-rule="evenodd" clip-rule="evenodd" d="M12.7241 1.13702C12.4925 1.7624 12.2607 2.34369 12.209 2.42875C12.1474 2.5302 11.9435 2.63046 11.6164 2.71999C10.9018 2.91566 9.62673 3.45032 8.95704 3.83504L8.38191 4.16553L7.13745 3.59862L5.89299 3.03179L4.43981 4.51651L2.98663 6.00123L3.53749 7.261L4.08834 8.52078L3.61819 9.45684C3.19287 10.3036 2.55162 12.0167 2.55162 12.3061C2.55162 12.3835 2.31694 12.5137 1.84081 12.7007C1.44983 12.8541 0.875787 13.0794 0.565001 13.2012L0 13.4227V15.5291V17.6357L0.710807 17.9147C1.10171 18.0681 1.66978 18.291 1.97313 18.4099L2.52471 18.6262L2.61971 19.0159C2.78862 19.7093 3.21256 20.8005 3.65413 21.6784L4.08528 22.5358L3.54456 23.764L3.00383 24.9921L4.46496 26.4933L5.92616 27.9944L6.2255 27.8616C6.39012 27.7885 6.93784 27.5413 7.44255 27.3121L8.36026 26.8955L9.27002 27.3755C10.0975 27.8119 11.7411 28.4519 12.0418 28.4546C12.1315 28.4554 12.2791 28.7576 12.5972 29.5916C12.8354 30.2163 13.0533 30.8029 13.0814 30.8951C13.1318 31.0606 13.1491 31.0627 14.4033 31.0627H15.6742V29.3789V27.6952L15.4805 27.4609C15.1072 27.0097 14.9288 26.4712 14.8889 25.6749C14.8666 25.2299 14.8204 24.9337 14.7711 24.9203C14.7265 24.9081 14.3771 24.8616 13.9947 24.817C10.6641 24.4282 7.64194 21.9087 6.52798 18.592C5.89671 16.7127 5.88308 14.4828 6.49131 12.5813C7.47536 9.50451 10.0451 7.11442 13.1674 6.37187C16.107 5.67282 19.2818 6.5551 21.5006 8.68777C22.9147 10.0468 23.8451 11.7717 24.2484 13.7821C24.3854 14.4646 24.4296 16.1294 24.329 16.8174L24.2718 17.2084H26.193C28.3457 17.2084 28.5861 17.247 29.2411 17.6973L29.6236 17.9603L30.0132 17.7987L30.4029 17.6371L30.3835 15.5154L30.3642 13.3938L29.1727 12.9254C28.5173 12.6678 27.9559 12.4284 27.925 12.3934C27.8941 12.3583 27.8291 12.162 27.7805 11.9572C27.6249 11.3021 27.1915 10.1936 26.7609 9.34921L26.3426 8.52897L26.8889 7.27597L27.4353 6.02298L25.9783 4.53431L24.5212 3.04564L23.2949 3.60168L22.0686 4.15771L21.3319 3.75973C20.5276 3.32533 19.55 2.92147 18.8091 2.71753C18.5484 2.6458 18.3083 2.5629 18.2754 2.53333C18.2425 2.50376 18.0084 1.93059 17.7552 1.25955L17.2948 0.0394774L15.2199 0.0197388L13.1451 0L12.7241 1.13702ZM18.8497 11.1372C18.6301 11.2172 18.0106 11.8053 16.2248 13.6292C14.9391 14.9423 13.8541 16.0166 13.8136 16.0166C13.7731 16.0166 13.3468 15.612 12.8663 15.1174C12.3858 14.6229 11.8708 14.1537 11.7221 14.0746C11.3693 13.8874 10.7112 13.8861 10.3106 14.072C9.5472 14.4263 9.19784 15.4295 9.55573 16.2401C9.77035 16.7263 12.5007 19.4957 13.0497 19.784C13.5408 20.042 14.1787 20.0735 14.5807 19.8596C14.9776 19.6486 20.6582 13.8109 20.8509 13.4161C21.0877 12.9307 21.038 12.1972 20.7384 11.7555C20.3268 11.1489 19.5323 10.8888 18.8497 11.1372ZM22.5932 18.5736C22.1645 18.8049 21.8574 19.3098 21.813 19.8559L21.78 20.2623H22.4406H23.1011L23.124 20.0202L23.1468 19.7782L25.4747 19.7585C27.9526 19.7375 27.9185 19.7328 27.9209 20.0976C27.922 20.2639 27.9379 20.2676 28.5599 20.2466L29.1978 20.2251L29.1924 19.9271C29.1843 19.4702 29.1071 19.2464 28.8573 18.9558C28.379 18.3992 28.3849 18.4002 25.4941 18.4002C22.9341 18.4002 22.9121 18.4015 22.5932 18.5736ZM16.2275 21.6833L16.0387 21.9124L16.0403 23.9737C16.0418 25.8166 16.0561 26.067 16.1765 26.3377C16.7075 27.5321 18.3829 28.3028 21.2723 28.6819C21.8854 28.7623 22.4325 28.8282 22.4883 28.8282C22.5492 28.8282 22.6377 28.6571 22.71 28.3999C22.7761 28.1643 22.9069 27.8364 23.0006 27.6711C23.2449 27.2401 23.8497 26.6898 24.3338 26.458C24.703 26.2813 24.8382 26.2584 25.5162 26.2584C26.1941 26.2584 26.3293 26.2813 26.6985 26.458C27.4735 26.8292 28.1075 27.6065 28.3212 28.4477L28.4083 28.7909L28.8395 28.7707C31.0736 28.6655 33.4985 27.9068 34.3313 27.0525C34.9505 26.4173 34.9541 26.4 34.9786 24.0028L35 21.8961L34.7837 21.6751L34.5674 21.4541H33.1104H31.6534L31.6237 22.8879C31.5903 24.5007 31.5514 24.6587 31.0521 25.2122C30.8925 25.3892 30.5904 25.6131 30.3808 25.71L29.9997 25.886H25.5526C20.5038 25.886 20.7027 25.9082 20.0346 25.2696C19.4782 24.7379 19.3923 24.4065 19.3923 22.792V21.4541H17.9042H16.4162L16.2275 21.6833ZM20.559 22.739C20.5592 23.8799 20.5751 24.0504 20.7009 24.2611C20.9689 24.7101 20.7929 24.6942 25.4797 24.6942C29.3965 24.6942 29.8013 24.6829 30.0081 24.5671C30.408 24.3434 30.4736 24.0792 30.4736 22.6905V21.4541H25.5162H20.5587L20.559 22.739ZM24.7421 27.5918C23.6726 28.1007 23.4372 29.5192 24.2754 30.4037C24.7136 30.8661 25.2766 31.0501 25.8514 30.9187C26.8274 30.6954 27.4244 29.7395 27.1958 28.7657C26.936 27.6595 25.7712 27.1022 24.7421 27.5918ZM16.8547 31.342C16.8799 34.3338 16.8673 34.2615 17.4489 34.7419L17.729 34.9732L25.4153 34.9929C32.4072 35.0107 33.1228 35.0014 33.3368 34.8908C33.67 34.7183 33.8225 34.5665 33.9807 34.25C34.1085 33.9941 34.1187 33.7771 34.1187 31.3303V28.687L33.6631 28.9031C32.7514 29.3354 30.9242 29.7599 29.1591 29.9495L28.3184 30.0398L28.1243 30.4619C27.5999 31.6025 26.2879 32.3103 25.0697 32.1098C24.1376 31.9564 23.2457 31.2796 22.8897 30.4554L22.7121 30.0445L21.6537 29.9197C19.8477 29.7069 18.1332 29.2932 17.2462 28.8565C17.0482 28.759 16.8741 28.6792 16.8593 28.6792C16.8444 28.6792 16.8423 29.8774 16.8547 31.342Z" fill="#CF893C"/>
</svg>
